id;login;password_hash;first_name;last_name;email;image_url;activated;lang_key;created_by;last_modified_by;reset_date
1;system;$2a$10$mE.qmcV0mFU5NcKh73TZx.z4ueI/.bDWbj0T1BYyqP481kGGarKLG;System;System;system@localhost;;true;en;system;system;null
2;anonymoususer;$2a$10$j8S5d7Sr7.8VTOYNviDPOeWX8KcYILUVJBsYV83Y5NtECayypx9lO;Anonymous;User;anonymous@localhost;;true;en;system;system;null
3;admin;$2a$10$gSAhZrxMllrbgj/kkK9UceBPpChGWJA7SYIb1Mqo.n5aNLq1/oRrC;Administrator;Administrator;admin@localhost;;true;en;system;system;null
4;user;$2a$10$VEjxo0jq2YG9Rbk2HmX9S.k1uZBGYUHdUcid3g/vfiEl7lwWgOH/K;User;User;user@localhost;;true;en;system;system;null

8;schoola8;$2a$10$ISr5mo7v5u53mQw5Wc8e5uZ0zE25AvOOkSLqJy5Rf5n4q5QlPK4Zy;schoola8;schoola8;schoola8@AAA.com;null;TRUE;en;system;system;2018-11-05 18:21:32.486
9;ksaadmin;$2a$10$HV/XV.msGB8rFUVlhKnnxujoF9X6b0w4O9NanrKQUSBN2CTETD3rq;statenisland;statenisland;statenisland@AAA.com;null;TRUE;en;system;system;2018-11-05 18:21:32.486

211000;1234567890;$2a$10$fuql3TdMEl4o8G255dMuMejQs1RBPSopYbKMWpWF2Ikam6s3JmHDC;Valentina;Ivkovic;parent2109@busrideksa.com;;True;en;system;system;2018-11-05 18:21:32.486
211100;2345678901;$2a$10$fuql3TdMEl4o8G255dMuMejQs1RBPSopYbKMWpWF2Ikam6s3JmHDC;Djordje;Djordjevic;parent2110@busrideksa.com;;True;en;system;system;2018-11-05 18:21:32.486
211200;1345678901;$2a$10$fuql3TdMEl4o8G255dMuMejQs1RBPSopYbKMWpWF2Ikam6s3JmHDC;Nemanja;Martinov;parent2111@busrideksa.com;;True;en;system;system;2018-11-05 18:21:32.486
211300;2456789012;$2a$10$fuql3TdMEl4o8G255dMuMejQs1RBPSopYbKMWpWF2Ikam6s3JmHDC;Rami;Aqqad;parent2112@busrideksa.com;;True;en;system;system;2018-11-05 18:21:32.486
211400;1456789012;$2a$10$fuql3TdMEl4o8G255dMuMejQs1RBPSopYbKMWpWF2Ikam6s3JmHDC;Toplica;Ivkovic;parent2113@busrideksa.com;;True;en;system;system;2018-11-05 18:21:32.486

212001;1756756777;$2a$10$nN3SKZOWH3KTD3wWAJ9b9umjd6PeUm/m2T8hgCXg9yOM.Xxyg1R9K;Valentina;Ivkovic;user21091@busrideksa.com;;True;en;system;system;2018-11-05 18:21:32.486
212002;2646736466;$2a$10$nN3SKZOWH3KTD3wWAJ9b9umjd6PeUm/m2T8hgCXg9yOM.Xxyg1R9K;Djordje;Djordjevic;user21101@busrideksa.com;;True;en;system;system;2018-11-05 18:21:32.486
212003;1345342346;$2a$10$nN3SKZOWH3KTD3wWAJ9b9umjd6PeUm/m2T8hgCXg9yOM.Xxyg1R9K;Nemanja;Martinov;user21111@busrideksa.com;;True;en;system;system;2018-11-05 18:21:32.486
212004;2765986345;$2a$10$nN3SKZOWH3KTD3wWAJ9b9umjd6PeUm/m2T8hgCXg9yOM.Xxyg1R9K;Rami;Aqqad;user21122@busrideksa.com;;True;en;system;system;2018-11-05 18:21:32.486
212005;1234876678;$2a$10$nN3SKZOWH3KTD3wWAJ9b9umjd6PeUm/m2T8hgCXg9yOM.Xxyg1R9K;Toplica;Ivkovic;user21133@busrideksa.com;;True;en;system;system;2018-11-05 18:21:32.486
212006;2746243546;$2a$10$nN3SKZOWH3KTD3wWAJ9b9umjd6PeUm/m2T8hgCXg9yOM.Xxyg1R9K;Toplica1;Ivkovic1;user211336@busrideksa.com;;True;en;system;system;2018-11-05 18:21:32.486
212007;1689067003;$2a$10$nN3SKZOWH3KTD3wWAJ9b9umjd6PeUm/m2T8hgCXg9yOM.Xxyg1R9K;Toplica2;Ivkovic2;user211337@busrideksa.com;;True;en;system;system;2018-11-05 18:21:32.486
212008;2849407463;$2a$10$nN3SKZOWH3KTD3wWAJ9b9umjd6PeUm/m2T8hgCXg9yOM.Xxyg1R9K;Toplica3;Ivkovic3;user211338@busrideksa.com;;True;en;system;system;2018-11-05 18:21:32.486
212009;1903736244;$2a$10$nN3SKZOWH3KTD3wWAJ9b9umjd6PeUm/m2T8hgCXg9yOM.Xxyg1R9K;Toplica4;Ivkovic4;user211339@busrideksa.com;;True;en;system;system;2018-11-05 18:21:32.486
212010;1111626278;$2a$10$nN3SKZOWH3KTD3wWAJ9b9umjd6PeUm/m2T8hgCXg9yOM.Xxyg1R9K;Toplica5;Ivkovic5;user211340@busrideksa.com;;True;en;system;system;2018-11-05 18:21:32.486
212011;2009845615;$2a$10$nN3SKZOWH3KTD3wWAJ9b9umjd6PeUm/m2T8hgCXg9yOM.Xxyg1R9K;Toplica6;Ivkovic6;user211341@busrideksa.com;;True;en;system;system;2018-11-05 18:21:32.486
212012;1045238893;$2a$10$nN3SKZOWH3KTD3wWAJ9b9umjd6PeUm/m2T8hgCXg9yOM.Xxyg1R9K;Toplica7;Ivkovic7;user211342@busrideksa.com;;True;en;system;system;2018-11-05 18:21:32.486
212013;1063745738;$2a$10$nN3SKZOWH3KTD3wWAJ9b9umjd6PeUm/m2T8hgCXg9yOM.Xxyg1R9K;Toplica8;Ivkovic8;user211343@busrideksa.com;;True;en;system;system;2018-11-05 18:21:32.486
212014;2984500997;$2a$10$nN3SKZOWH3KTD3wWAJ9b9umjd6PeUm/m2T8hgCXg9yOM.Xxyg1R9K;Toplica9;Ivkovic9;user211344@busrideksa.com;;True;en;system;system;2018-11-05 18:21:32.486
212015;1903638877;$2a$10$nN3SKZOWH3KTD3wWAJ9b9umjd6PeUm/m2T8hgCXg9yOM.Xxyg1R9K;Toplica10;Ivkovic10;user211345@busrideksa.com;;True;en;system;system;2018-11-05 18:21:32.486
212016;2020986999;$2a$10$nN3SKZOWH3KTD3wWAJ9b9umjd6PeUm/m2T8hgCXg9yOM.Xxyg1R9K;Toplica11;Ivkovic11;user211346@busrideksa.com;;True;en;system;system;2018-11-05 18:21:32.486
212017;1667700987;$2a$10$nN3SKZOWH3KTD3wWAJ9b9umjd6PeUm/m2T8hgCXg9yOM.Xxyg1R9K;Toplica12;Ivkovic12;user211347d@busrideksa.com;;True;en;system;system;2018-11-05 18:21:32.486
212018;1556252527;$2a$10$nN3SKZOWH3KTD3wWAJ9b9umjd6PeUm/m2T8hgCXg9yOM.Xxyg1R9K;Toplica13;Ivkovic13;user211348d@busrideksa.com;;True;en;system;system;2018-11-05 18:21:32.486
212019;2920826248;$2a$10$nN3SKZOWH3KTD3wWAJ9b9umjd6PeUm/m2T8hgCXg9yOM.Xxyg1R9K;Toplica14;Ivkovic14;user211349d@busrideksa.com;;True;en;system;system;2018-11-05 18:21:32.486

250901;schoola8_tablet_1;$2a$10$RjvRFIHzx9ArMMiJeAJ1lOYsA8v0Fia3uJPrrVcSYSLxusqCe2oFK;schoola8_tablet_1;schoola8_tablet_1;schoola8_tablet_1@busrideksa.com;;True;en;system;system;2018-11-05 18:21:32.486
250902;ksaadmin_tablet_1;$2a$10$9dGG0UkisgDxwpC..lZfJO1B0RolHZYAT9RgU8gIhf6W0tw17u0/i;ksa_tablet_1;ksa_tablet_1;ksa_tablet_1@aaa.com;;True;en;system;system;2018-11-05 18:21:32.486
